1 Data visualization
…
A variable is a quantity, quality, or property that you can measure.

A value is the state of a variable when you measure it. The value of a variable may change from measurement to measurement.

An observation is a set of measurements made under similar conditions (you usually make all of the measurements in an observation at the same time and on the same object). An observation will contain several values, each associated with a different variable. We’ll sometimes refer to an observation as a data point.

Tabular data is a set of values, each associated with a variable and an observation. Tabular data is tidy if each value is placed in its own “cell”, each variable in its own column, and each observation in its own row.

In this context, a variable refers to an attribute of all the penguins, and an observation refers to all the attributes of a single penguin.

Type the name of the data frame in the console and R will print a preview of its contents. Note that it says tibble on top of this preview. In the tidyverse, we use special data frames called tibbles that you will learn more about soon.

penguins

# A tibble: 344 × 8
   species island bill_length_mm bill_depth_mm flipper_length_mm body_mass_g sex    year
   <fct>   <fct>           <dbl>         <dbl>             <int>       <int> <fct> <int>
 1 Adelie  Torge…           39.1          18.7               181        3750 male   2007
 2 Adelie  Torge…           39.5          17.4               186        3800 fema…  2007
 3 Adelie  Torge…           40.3          18                 195        3250 fema…  2007
 4 Adelie  Torge…           NA            NA                  NA          NA NA     2007
 5 Adelie  Torge…           36.7          19.3               193        3450 fema…  2007
 6 Adelie  Torge…           39.3          20.6               190        3650 male   2007
 7 Adelie  Torge…           38.9          17.8               181        3625 fema…  2007
 8 Adelie  Torge…           39.2          19.6               195        4675 male   2007
 9 Adelie  Torge…           34.1          18.1               193        3475 NA     2007
10 Adelie  Torge…           42            20.2               190        4250 NA     2007
# ℹ 334 more rows
# ℹ Use `print(n = ...)` to see more rows
…
